{
  "reporterEnabled": "mochawesome, mocha-junit-reporter",
  "mochawesomeReporterOptions": {
    "reportDir": "reports/unittest",
    "reportFilename": "index",
    "quiet": "true",
    "html": "true",
    "json": "false",
    "consoleReporter": "spec"
  },
  "mochaJunitReporterReporterOptions": {
    "mochaFile": "reports/unittest.xml"
  }
}
